%YAML 1.1
%TAG !u! tag:unity3d.com,2011:
--- !u!114 &11400000
MonoBehaviour:
  m_ObjectHideFlags: 0
  m_PrefabParentObject: {fileID: 0}
  m_PrefabInternal: {fileID: 0}
  m_GameObject: {fileID: 0}
  m_Enabled: 1
  m_EditorHideFlags: 0
  m_Script: {fileID: 11500000, guid: dde73ca5775c7415b8e02f206c4bcbf8, type: 3}
  m_Name: Q13
  m_EditorClassIdentifier: 
  questionName: "Considerando a radia\xE7\xE3o solar que chega \xE0 superf\xEDcie
    terrestre e incidente sobre uma superf\xEDcie receptora para gera\xE7\xE3o de
    energia, tem-se que ela \xE9 constitu\xEDda por uma componente direta e por uma
    difusa. Assinale a alternativa correta."
  options:
  - text: "A radia\xE7\xE3o direta \xE9 aquela que prov\xEAm diretamente da dire\xE7\xE3o
      do Sol e produz sombras n\xEDtidas. A difusa \xE9 aquela proveniente de todas
      as dire\xE7\xF5es e que atinge a superf\xEDcie ap\xF3s sofrer espalhamento pela
      atmosfera terrestre."
    isCorrect: 1
  - text: "A radia\xE7\xE3o direta \xE9 aquela que prov\xEAm diretamente da dire\xE7\xE3o
      da Terra e produz sombras n\xEDtidas. A difusa \xE9 aquela proveniente de todas
      as dire\xE7\xF5es e que atinge a superf\xEDcie ap\xF3s sofrer espalhamento pela
      atmosfera terrestre."
    isCorrect: 0
  - text: "A radia\xE7\xE3o direta \xE9 aquela que prov\xEAm diretamente da dire\xE7\xE3o
      do Sol e produz sombras n\xEDtidas. A difusa \xE9 aquela proveniente de todas
      as dire\xE7\xF5es e que atinge a superf\xEDcie do Sol ap\xF3s sofrer espalhamento
      pela atmosfera terrestre."
    isCorrect: 0
  - text: "A radia\xE7\xE3o direta \xE9 aquela proveniente de todas as dire\xE7\xF5es
      e que atinge a superf\xEDcie ap\xF3s sofrer espalhamento pela atmosfera terrestre.
      A difusa \xE9 aquela que prov\xEAm diretamente da dire\xE7\xE3o do Sol e produz
      sombras n\xEDtidas."
    isCorrect: 0
