%YAML 1.1
%TAG !u! tag:unity3d.com,2011:
--- !u!114 &11400000
MonoBehaviour:
  m_ObjectHideFlags: 0
  m_PrefabParentObject: {fileID: 0}
  m_PrefabInternal: {fileID: 0}
  m_GameObject: {fileID: 0}
  m_Enabled: 1
  m_EditorHideFlags: 0
  m_Script: {fileID: 11500000, guid: dde73ca5775c7415b8e02f206c4bcbf8, type: 3}
  m_Name: Q7
  m_EditorClassIdentifier: 
  questionName: 'Assinale a alternativa incorreta:'
  options:
  - text: "O custo das c\xE9lulas fotovoltaicas \xE9, ainda hoje, um grande desafio
      para a ind\xFAstria e o principal empecilho para a difus\xE3o dos sistemas fotovoltaicos
      em larga escala."
    isCorrect: 0
  - text: "No que se refere \xE0 instala\xE7\xE3o de Usinas Fotovoltaicas (UFV) no
      Brasil, a primeira planta, um empreendimento da iniciativa p\xFAblica com pot\xEAncia
      de 1 MWp, foi inaugurada em 2011 no Munic\xEDpio de Tau\xE1, CE."
    isCorrect: 1
  - text: "A energia solar fotovoltaica \xE9 a energia obtida atrav\xE9s da convers\xE3o
      direta da luz em eletricidade (Efeito Fotovoltaico), sendo a c\xE9lula fotovoltaica,
      um dispositivo fabricado com material semicondutor, a unidade fundamental desse
      processo de convers\xE3o."
    isCorrect: 0
  - text: "M\xF3dulo fotovoltaico \xE9 uma unidade b\xE1sica, formada por um conjunto
      de c\xE9lulas fotovoltaicas, interligadas eletricamente e encapsuladas, com
      o objetivo de gerar energia el\xE9trica."
    isCorrect: 0
