%YAML 1.1
%TAG !u! tag:unity3d.com,2011:
--- !u!114 &11400000
MonoBehaviour:
  m_ObjectHideFlags: 0
  m_PrefabParentObject: {fileID: 0}
  m_PrefabInternal: {fileID: 0}
  m_GameObject: {fileID: 0}
  m_Enabled: 1
  m_EditorHideFlags: 0
  m_Script: {fileID: 11500000, guid: dde73ca5775c7415b8e02f206c4bcbf8, type: 3}
  m_Name: Q8
  m_EditorClassIdentifier: 
  questionName: "O Brasil, embora apresente condi\xE7\xF5es naturais favor\xE1veis,
    n\xE3o utiliza amplamente (ao menos por enquanto) a energia solar em sua matriz
    energ\xE9tica. Um dos fatores que justificam essa realidade encontra-se em algumas
    de suas desvantagens, como:"
  options:
  - text: "a aus\xEAncia de zonas de elevada radia\xE7\xE3o solar no territ\xF3rio
      brasileiro."
    isCorrect: 0
  - text: "a inefici\xEAncia tecnol\xF3gica das usinas solares em todo o mundo."
    isCorrect: 0
  - text: o alto custo dos investimentos e a baixa capacidade de armazenamento.
    isCorrect: 1
  - text: "a prefer\xEAncia dos consumidores para a matriz hidrel\xE9trica."
    isCorrect: 0
