%YAML 1.1
%TAG !u! tag:unity3d.com,2011:
--- !u!114 &11400000
MonoBehaviour:
  m_ObjectHideFlags: 0
  m_PrefabParentObject: {fileID: 0}
  m_PrefabInternal: {fileID: 0}
  m_GameObject: {fileID: 0}
  m_Enabled: 1
  m_EditorHideFlags: 0
  m_Script: {fileID: 11500000, guid: dde73ca5775c7415b8e02f206c4bcbf8, type: 3}
  m_Name: Q9
  m_EditorClassIdentifier: 
  questionName: "Vem se tornando crescente, em todo o mundo, o aproveitamento energ\xE9tico
    da radia\xE7\xE3o solar, cujo destino principal \xE9 para duas formas de energia,
    que s\xE3o:"
  options:
  - text: "a el\xE9trica e a mec\xE2nica"
    isCorrect: 0
  - text: "a el\xE9trica e a automotiva"
    isCorrect: 0
  - text: "a el\xE9trica e a t\xE9rmica"
    isCorrect: 1
  - text: "a mec\xE2nica e a automotiva"
    isCorrect: 0
