{
    "items": 
    [
        {"key": "label.pressToContinue", "value": "Pressione qualquer tecla para continuar"},
        {"key": "label.pressSpaceToContinue", "value": "Pressione ESC para pular"},
        {"key": "label.startGame", "value": "Iniciar o jogo"},
        {"key": "label.options", "value": "Opções"},
        {"key": "label.credits", "value": "Créditos"},
        {"key": "label.exit", "value": "Sair"},
        {"key": "label.continue", "value": "Continuar"},
        {"key": "label.back", "value": "Voltar"},
        {"key": "label.confirm", "value": "Confirmar"},
        {"key": "label.cancel", "value": "Cancelar"},
        {"key": "label.mission", "value": "Missões"},
        {"key": "label.completed", "value": "Completado"},
        {"key": "label.active", "value": "Ativo"},
        {"key": "label.date", "value": "Data"},
        {"key": "label.scoreboard", "value": "Quadro de Pontos"},
        {"key": "label.time", "value": "Tempo"},
        {"key": "label.total", "value": "Total"},
        {"key": "label.resetBoard", "value": "Resetar Quadro"},
        {"key": "label.close", "value": "Fechar"},

        {"key": "label.musicSoundVolume", "value": "Volume da Música"},
        {"key": "label.2DSoundVolume", "value": "Volume dos Efeitos 2D"},
        {"key": "label.3DSoundVolume", "value": "Volume 3D"},
        {"key": "label.mouseSensibility", "value": "Sensibilidade do Mouse"},
        {"key": "label.language", "value": "Língua"},
        {"key": "label.loading", "value": "Carregando"},
        {"key": "label.version", "value": "Versão 1.1"},

        {"key": "text.credits.description", "value": "Desenvolvido pelo Laboratório de Pesquisa Aplicada (LPA), na Universidade Federal de Santa Catarina (UFSC)\n\nDesenvolvimento:\nRamon Venson\n\nOrientaçao:\nRoderval Marcelino\nMichael Callaghan\n\nTestes:\nJeison Cleiton Pandini"},
        {"key": "text.credits.thirdPart", "value": "<b>Recursos Externos</b>\nInsect Alien - Jayanam\nMultiGun - 810\n\n<b>Trilha Sonora</b>\nA Dark Hero - Grégoire Lourme\nTI Techesh - sereja240\nGuerilla Warfare - Titan Slayer\nDebardage - Alban Talwinski"},

        {"key": "text.selectYourLanguage", "value": "Selecione sua língua"},
        {"key": "text.youNeedHelp", "value": "Você precisa de ajuda para iniciar? (tutorial do jogo)"},
        {"key": "text.iNeedHelp", "value": "Sim, eu preciso de ajuda!"},
        {"key": "text.iNotNeedHelp", "value": "Não, eu sou experiente!"},
        {"key": "text.scoreboard.delete", "value": "Tem certeza que deseja apagar o seu histórico? (Essa ação é irreversível)"},

        {"key": "label.life", "value": "Vida"},
        {"key": "label.north", "value": "Norte"},
        {"key": "label.south", "value": "Sul"},
        {"key": "label.east", "value": "Leste"},
        {"key": "label.west", "value": "Oeste"},
        {"key": "label.northShort", "value": "N"},
        {"key": "label.southShort", "value": "S"},
        {"key": "label.eastShort", "value": "L"},
        {"key": "label.westShort", "value": "O"},

        {"key": "label.solarPlantState", "value": "Estado da Planta Solar"},
        {"key": "label.tensionShort", "value": "V"},
        {"key": "label.tensionUnit", "value": "Volts"},
        {"key": "label.currentShort", "value": "A"},
        {"key": "label.currentUnit", "value": "Amperes"},
        {"key": "label.powerShort", "value": "W"},
        {"key": "label.powerUnit", "value": "Watts"},
        {"key": "label.stringA", "value": "String A"},
        {"key": "label.stringB", "value": "String B"},
        {"key": "label.stringC", "value": "String C"},
        {"key": "label.online", "value": "Ligada"},
        {"key": "label.offline", "value": "Desligada"},
        {"key": "label.lowPower", "value": "Potência Baixa"},

        {"key": "label.seconds", "value": "Segundos"},
        {"key": "label.aliens", "value": "Aliens"},
        {"key": "label.points", "value": "Pontos"},

        {"key": "label.powerGenerator", "value": "Geração de Energia"},
        {"key": "label.cannonPower", "value": "Potência do Canhão"},

        {"key": "label.quiz", "value": "QUIZ"},
        {"key": "label.teleport", "value": "Teletransporte"},
        {"key": "label.brazil", "value": "Brasil"},
        {"key": "label.northIreland", "value": "Irlanda do Norte"},
        {"key": "label.area25", "value": "Área 25"},
        {"key": "label.controlCenter", "value": "Centro de Controle"},

        {"key": "label.brasilDescription", "value": "Excesso de sujeira nos painéis"},
        {"key": "label.northIrelandDescription", "value": "Conexões danificadas"},
        {"key": "label.area25Description", "value": "Painéis desalinhados"},
        {"key": "label.controlCenterDescription", "value": "Central de Operações Principal"},
        {"key": "label.teleportConfirm", "value": "Teletransportar"},
        {"key": "text.selectYourDestination", "value": "Selecione seu destino"},
        {"key": "text.SelectAPointToStartTeleport", "value": "Selecione um ponto no mapa para iniciar o teletransporte"},
        {"key": "text.teleportTextConfirmation", "value": "Tem certeza que deseja ir para este ponto?"},

        {"key": "label.panelConfiguration", "value": "Configuração do Paínel"},
        {"key": "label.indicators", "value": "Indicadores"},
        {"key": "label.current", "value": "Corrente"},
        {"key": "label.tension", "value": "Tensão"},
        {"key": "label.power", "value": "Potência"},
        {"key": "label.cleaning", "value": "Limpeza"},
        {"key": "label.incidence", "value": "Incidência"},
        {"key": "label.inclination", "value": "Inclinação"},
        {"key": "label.rotation", "value": "Rotação"},

        {"key": "label.menu", "value": "MENU"},
        {"key": "text.menuDescription", "value": "pressione ESC para continuar"},
        {"key": "text.exitGame", "value": "Tem certeza que deseja sair? (todo progresso será perdido!)"},

        {"key": "label.objectives", "value": "Objetivos"},

        {"key": "text.deathMessage", "value": "Você falhou em sua missão!"},
        {"key": "label.restartMission", "value": "Reiniciar Missão"},
       
        {"key": "text.tip.cannonActivation", "value": "Pressione E para ativar o canhão"},
        {"key": "text.tip.cannonActivationNegative", "value": "O canhão ainda não pode ser ativado!"},
        {"key": "text.tip.objectInteraction", "value": "Interaja com esse objeto pressionando a tecla E"},
        {"key": "text.tip.moduleActivation", "value": "Pressione E para ativar a estação fotovoltaica"},
        {"key": "text.tip.moduleActivationNegative", "value": "Parece que as conexões da planta ainda estão comprometidas"},
        {"key": "text.tip.plumbingFix", "value": "Pressione E para reconstruir o cabeamento"},
        {"key": "text.tip.plumbingFixNegative", "value": "O cabeamento não pode ser construído enquanto pega fogo!"},
        {"key": "text.tip.quiz", "value": "Você precisa responder um QUIZ para utilizar este item. Pressione E para iniciar"},
        {"key": "text.tip.quiz.correct", "value": "Você acertou e recebeu vida extra!"},
        {"key": "text.tip.quiz.wrong", "value": "Resposta errada!"},
        {"key": "text.tip.door.disabled", "value": "Esta porta está desabilitada no momento"},

        {"key": "mission.intro.dialog01", "value": "Planeta Terra - Ano 2 do Calendário de Transição"},
        {"key": "mission.intro.dialog02", "value": "Depois de uma grave crise energética, a principal fonte de geração de energia do planeta Terra provém do sol"},
        {"key": "mission.intro.dialog03", "value": "Depois de ultrapassar as defesas na Lua, uma raça alienígena chega às principais estações de geração de energia fotovoltaica"},
        {"key": "mission.intro.dialog04", "value": "Qualquer possibilidade de contra-ataque é ineficaz se não conseguirmos reestabelecer o funcionamento das plantas fotovoltaicas"},
        {"key": "mission.intro.dialog05", "value": "Precisamos de você pra esse trabalho..."},

        {"key": "mission.contromRoomStage.entry", "value": "Bem-vindo ao laboratório de operações fotovoltaicas!\n\nOs aliens tomaram conta de nossas principais estações fotovoltaicas e precisamos de alguém que faça o serviço de restabelecer as operações energéticas. Claro que será necessário lidar com alguns de nossos visitantes, mas nosso treinamento será o suficiente para que você mantenha-se livre de ameaça.\n\nRestaure o funcionamento das nossas forças para que possamos rechaçar esta invasão!"},
        {"key": "mission.stage01.entry", "value": "Bem-vindo ao Brasil!\n\nOs aliens parecem ter sujado boa parte dos painéis solares por aqui. Você vai encontrar três strings com capacidade de aproximadamente 3,8kWp cada um. É necessário que todos eles sejam verificados.\n\nPrecisaremos de um mínimo de 3kWp em cada um dos grids para que possamos reestabelecer o funcionamento dos sistemas de defesa dessa região."},
        {"key": "mission.stage02.entry", "value": "Bem-vindo à Irlanda do Norte!\n\nNossa telemetria indica que há algo de errado com as conexões entre os grids. Você vai encontrar três strings conectados em série e com capacidade de aproximadamente 3,8kWp cada um. É necessário que todos estejam funcionando para restabelecer os sistemas de defesa dessa região."},
        {"key": "mission.stage03.entry", "value": "Bem-vindo à Área 25!\n\nOs aliens desconfiguraram a orientação dos nossos painéis fotovoltaicos, comprometendo diretamente a eficiência na geração de energia. Você vai encontrar três strings com capacidade máxima de aproximadamente 3,8kWp cada um. Todos eles precisam ser verificados.\n\nPrecisaremos de um mínimo de 3kWp em cada um dos grids para que possamos reestabelecer o funcionamento dos sistemas de defesa dessa região."},
        
        {"key": "mission.contromRoom.objective01.dialog01", "value": "Agora você precisa encontrar a nossa nova mais nova invenção"},
        {"key": "mission.contromRoom.objective01.dialog02", "value": "É uma arma que vai te ajudar limpar os painéis e a espantar os aliens"},
        {"key": "mission.contromRoom.objective01.dialog03", "value": "Ela está em cima da mesa do laboratório"},

        {"key": "mission.contromRoom.objective02.dialog01", "value": "Usando o gatilho alternativo da arma é possível limpar os painéis sujos"},
        {"key": "mission.contromRoom.objective02.dialog02", "value": "Precisamos de ajuda pra limpar alguns painéis no nosso quintal"},
        {"key": "mission.contromRoom.objective02.dialog03", "value": "A limpeza é muito importante pra garantir o bom funcionamento do sistema fotovoltaico"},
        {"key": "mission.contromRoom.objective02.dialog04", "value": "E parece que nosso sistema de energia já anda bastante comprometido"},

        {"key": "mission.contromRoom.objective03.dialog01", "value": "Muito bom! Vejo que você está preparado para defender nossos sistemas"},
        {"key": "mission.contromRoom.objective03.dialog02", "value": "Use o teletransporte, mas por favor, tenha cuidado!"},
        {"key": "mission.contromRoom.objective03.dialog03", "value": "Não sabemos o que te aguarda em nenhuma das plantas fotovoltaicas"},

        {"key": "mission.stage01.dialog01", "value": "O Brasil é o país com maior taxa de irradiação solar do mundo"},
        {"key": "mission.stage01.dialog02", "value": "Logo não poderíamos deixar de implantar uma das usinas por aqui"},
        {"key": "mission.stage01.dialog03", "value": "Tome cuidado pois os Aliens podem surgir quando você menos esperar"},
        {"key": "mission.stage01.dialog04", "value": "Você precisa limpar os painéis usando o modo secundário da sua arma [Mouse Direito]"},

        {"key": "mission.stage02.dialog01", "value": "A nossa planta na Irlanda é um local bastante bonito"},
        {"key": "mission.stage02.dialog02", "value": "Mas parece que temos uma bagunça enorme por aqui"},
        {"key": "mission.stage02.dialog03", "value": "Não esqueça de ligar os grids depois de realizar os reparos"},
        {"key": "mission.stage02.dialog04", "value": "Você precisa usar o modo secundário da sua arma para apagar o fogo [Mouse Direito]"},
        {"key": "mission.stage02.dialog05", "value": "Em seguida, realize o reparo no local avariado [Tecla E]"},

        {"key": "mission.stage03.dialog01", "value": "A Área 25 foi construída exclusivamente pro nosso sistema de defesa"},
        {"key": "mission.stage03.dialog02", "value": "É muito importante que ela esteja funcionando da maneira correta"},
        {"key": "mission.stage03.dialog03", "value": "Mas tome cuidado, pois nossos amigos vão surgir de qualquer lugar"},
        {"key": "mission.stage03.dialog04", "value": "Você precisa ajustar a inclinação e rotação de cada um dos painéis [Tecla E]"},

        {"key": "mission.finalStage.dialog01", "value": "Eles manipularam a energia do teletransporte!"},
        {"key": "mission.finalStage.dialog02", "value": "Você precisa arrumar um jeito de escapar"},
        {"key": "mission.finalStage.dialog03", "value": "Olhe aquele canhão de laser, ele pode ajudar! Só vai precisar de energia"},
        {"key": "mission.finalStage.dialog04", "value": "As bolas de energia estão usando energia das nossas plantas fotovoltaicas"},
        {"key": "mission.finalStage.dialog05", "value": "A invasão deve ter algo relacionado com isso!"},
        {"key": "mission.finalStage.dialog06", "value": "Você precisa arrumar os painéis fotovoltaicos!"},
        {"key": "mission.finalStage.dialog07", "value": "Só assim teremos energia para disparar o canhão"},
        {"key": "mission.finalStage.dialog08", "value": "Eu não estou acreditando no que eu estou vendo..."},
        {"key": "mission.finalStage.dialog09", "value": "Eles estão indo embora!!!"},
        {"key": "mission.finalStage.dialog10", "value": "Eu nunca achei que você fosse conseguir! Hahaha!"},

        {"key": "mission.end.dialog01", "value": "A vitória sobre o seu capitão forçou os aliens a bateram em retirada da Terra"},
        {"key": "mission.end.dialog02", "value": "Com o funcionamento completo das plantas fotovoltaicas, os sistemas de defesa foram reativados"},
        {"key": "mission.end.dialog03", "value": "Graças a você, o planeta Terra pode voltar a respirar aliviado"},
        {"key": "mission.end.dialog04", "value": "..."},
        {"key": "mission.end.dialog05", "value": "Ao menos por enquanto..."},

        {"key": "mission.controlRoom.objective01.name", "value": "Dedo no gatilho"},
        {"key": "mission.controlRoom.objective01.description", "value": "Localize e colete a arma laser"},

        {"key": "mission.controlRoom.objective02.name", "value": "Limpeza"},
        {"key": "mission.controlRoom.objective02.description", "value": "Limpe alguns paineis sujos"},

        {"key": "mission.controlRoom.objective03.name", "value": "Ponto de Inserção"},
        {"key": "mission.controlRoom.objective03.description", "value": "Utilize o teletransporte"},

        {"key": "mission.sectorA", "value": "Setor A"},
        {"key": "mission.sectorB", "value": "Setor B"},
        {"key": "mission.sectorC", "value": "Setor C"},

        {"key": "mission.stage01.objective.description", "value": "Limpe os painéis fotovoltaicos deste setor"},
        {"key": "mission.stage01.finalTrigger.name", "value": "Limpeza"},
        {"key": "mission.stage01.finalTrigger.description", "value": "Complete a limpeza dos três setores"},

        {"key": "mission.stage02.objective.description", "value": "Restaure as conexões deste setor"},
        {"key": "mission.stage02.finalTrigger.name", "value": "Conserto"},
        {"key": "mission.stage02.finalTrigger.description", "value": "Complete o conserto dos tres setores"},

        {"key": "mission.stage03.objective.description", "value": "Configure o alinhamento dos paineis"},
        {"key": "mission.stage03.finalTrigger.name", "value": "Alinhamento"},
        {"key": "mission.stage03.finalTrigger.description", "value": "Complete o alinhamento dos três setores"},

        {"key": "mission.backToHome", "value": "Volta pra casa"},
        {"key": "mission.backToHome.description", "value": "Volte para o laboratório em segurança"},

        {"key": "mission.finalStage.objective.name", "value": "Inseticida"},
        {"key": "mission.finalStage.objective.description", "value": "Dispare o canhão e acabe com os aliens"},

        {"key": "board.teleport", "value": "Teletransporte"},
        {"key": "board.powerPlant", "value": "Planta de\nEnergia"},
        {"key": "board.brazil.plant", "value": "Planta\nBrasil"},
        {"key": "board.northIreland.plant", "value": "Planta\nIrlanda do Norte"},
        {"key": "board.area25.plant", "value": "Planta\nÁrea 25"},

        {"key": "credits.developer", "value": "Desenvolvedor"},
        {"key": "credits.developer.description", "value": "Ramon Venson"},
        {"key": "credits.aliens.text", "value": "Você espantou"},
        {"key": "credits.tutoring", "value": "Orientação"},
        {"key": "credits.tutoring.description01", "value": "Prof. Dr. Roderval Marcelino"},
        {"key": "credits.tutoring.description02", "value": "Prof. Dr. Michael Callagham"},
        {"key": "credits.time.text", "value": "Tempo em missão"},
        {"key": "credtis.university", "value": "Instituição"},
        {"key": "credtis.university.description", "value": "Universidade Federal de Santa Catarina"},
        {"key": "credits.power.text", "value": "Energia total gerada"},
        {"key": "credits.program", "value": "Programa"},
        {"key": "credits.program.description", "value": "Pós Graduação em Tecnologias da Informação e Comunicação"},
        {"key": "credits.finalScore", "value": "Pontuação Final"},
        {"key": "credits.researchGroup", "value": "Grupo de Pesquisa"},
        {"key": "credits.researchGroup.description", "value": "Laboratório de Pesquisa Aplicada (LPA)"},
        {"key": "credits.finalMessage.title", "value": "Missão Cumprida!"},
        {"key": "credits.finalMessage.subtitle", "value": "OBRIGADO POR JOGAR!"},

        {"key": "default", "value": ""}

        
    ]
}